{
  "type": "minecraft:crafting_shaped",
  "pattern": [
    "XXX",
    "X X",
    "X X"
  ],
  "key": {
    "X": {
      "item": "minecraft:scandium"
    }
  },
  "result": {
    "item": "minecraft:scandium_leggings"
  }
}